{
  "unpublishedPage": {
    "name": "Class Data",
    "slug": "class-data",
    "layouts": [
      {
        "viewMode": false,
        "dsl": {
          "widgetName": "MainContainer",
          "backgroundColor": "none",
          "rightColumn": 1174,
          "snapColumns": 64,
          "detachFromLayout": true,
          "widgetId": "0",
          "topRow": 0,
          "bottomRow": 880,
          "containerStyle": "none",
          "snapRows": 125,
          "parentRowSpace": 1,
          "type": "CANVAS_WIDGET",
          "canExtend": true,
          "version": 59,
          "minHeight": 890,
          "parentColumnSpace": 1,
          "dynamicTriggerPathList": [],
          "dynamicBindingPathList": [],
          "leftColumn": 0,
          "children": [
            {
              "schema": {
                "__root_schema__": {
                  "children": {
                    "Student_Name": {
                      "children": {},
                      "dataType": "string",
                      "defaultValue": "{{((sourceData, formData, fieldState) => (sourceData.Student_Name))(update_form.sourceData, update_form.formData, update_form.fieldState)}}",
                      "fieldType": "Text Input",
                      "sourceData": "Alexandra",
                      "isCustomField": false,
                      "accessor": "Student_Name",
                      "identifier": "Student_Name",
                      "position": 0,
                      "originalIdentifier": "Student_Name",
                      "boxShadow": "none",
                      "borderRadius": "{{((sourceData, formData, fieldState) => (appsmith.theme.borderRadius.appBorderRadius))(update_form.sourceData, update_form.formData, update_form.fieldState)}}",
                      "accentColor": "{{((sourceData, formData, fieldState) => (appsmith.theme.colors.primaryColor))(update_form.sourceData, update_form.formData, update_form.fieldState)}}",
                      "iconAlign": "left",
                      "isDisabled": false,
                      "isRequired": false,
                      "isSpellCheck": false,
                      "isVisible": true,
                      "labelTextSize": "0.875rem",
                      "label": "Student Name"
                    },
                    "Gender": {
                      "children": {},
                      "dataType": "string",
                      "defaultValue": "{{((sourceData, formData, fieldState) => (sourceData.Gender))(update_form.sourceData, update_form.formData, update_form.fieldState)}}",
                      "fieldType": "Text Input",
                      "sourceData": "Female",
                      "isCustomField": false,
                      "accessor": "Gender",
                      "identifier": "Gender",
                      "position": 1,
                      "originalIdentifier": "Gender",
                      "boxShadow": "none",
                      "borderRadius": "{{((sourceData, formData, fieldState) => (appsmith.theme.borderRadius.appBorderRadius))(update_form.sourceData, update_form.formData, update_form.fieldState)}}",
                      "accentColor": "{{((sourceData, formData, fieldState) => (appsmith.theme.colors.primaryColor))(update_form.sourceData, update_form.formData, update_form.fieldState)}}",
                      "iconAlign": "left",
                      "isDisabled": false,
                      "isRequired": false,
                      "isSpellCheck": false,
                      "isVisible": true,
                      "labelTextSize": "0.875rem",
                      "label": "Gender"
                    },
                    "Class_Level": {
                      "children": {},
                      "dataType": "string",
                      "defaultValue": "{{((sourceData, formData, fieldState) => (sourceData.Class_Level))(update_form.sourceData, update_form.formData, update_form.fieldState)}}",
                      "fieldType": "Text Input",
                      "sourceData": "4. Senior",
                      "isCustomField": false,
                      "accessor": "Class_Level",
                      "identifier": "Class_Level",
                      "position": 2,
                      "originalIdentifier": "Class_Level",
                      "boxShadow": "none",
                      "borderRadius": "{{((sourceData, formData, fieldState) => (appsmith.theme.borderRadius.appBorderRadius))(update_form.sourceData, update_form.formData, update_form.fieldState)}}",
                      "accentColor": "{{((sourceData, formData, fieldState) => (appsmith.theme.colors.primaryColor))(update_form.sourceData, update_form.formData, update_form.fieldState)}}",
                      "iconAlign": "left",
                      "isDisabled": false,
                      "isRequired": false,
                      "isSpellCheck": false,
                      "isVisible": true,
                      "labelTextSize": "0.875rem",
                      "label": "Class Level"
                    },
                    "Home_State": {
                      "children": {},
                      "dataType": "string",
                      "defaultValue": "{{((sourceData, formData, fieldState) => (sourceData.Home_State))(update_form.sourceData, update_form.formData, update_form.fieldState)}}",
                      "fieldType": "Text Input",
                      "sourceData": "CA",
                      "isCustomField": false,
                      "accessor": "Home_State",
                      "identifier": "Home_State",
                      "position": 3,
                      "originalIdentifier": "Home_State",
                      "boxShadow": "none",
                      "borderRadius": "{{((sourceData, formData, fieldState) => (appsmith.theme.borderRadius.appBorderRadius))(update_form.sourceData, update_form.formData, update_form.fieldState)}}",
                      "accentColor": "{{((sourceData, formData, fieldState) => (appsmith.theme.colors.primaryColor))(update_form.sourceData, update_form.formData, update_form.fieldState)}}",
                      "iconAlign": "left",
                      "isDisabled": false,
                      "isRequired": false,
                      "isSpellCheck": false,
                      "isVisible": true,
                      "labelTextSize": "0.875rem",
                      "label": "Home State"
                    },
                    "Major": {
                      "children": {},
                      "dataType": "string",
                      "defaultValue": "{{((sourceData, formData, fieldState) => (sourceData.Major))(update_form.sourceData, update_form.formData, update_form.fieldState)}}",
                      "fieldType": "Text Input",
                      "sourceData": "English",
                      "isCustomField": false,
                      "accessor": "Major",
                      "identifier": "Major",
                      "position": 4,
                      "originalIdentifier": "Major",
                      "boxShadow": "none",
                      "borderRadius": "{{((sourceData, formData, fieldState) => (appsmith.theme.borderRadius.appBorderRadius))(update_form.sourceData, update_form.formData, update_form.fieldState)}}",
                      "accentColor": "{{((sourceData, formData, fieldState) => (appsmith.theme.colors.primaryColor))(update_form.sourceData, update_form.formData, update_form.fieldState)}}",
                      "iconAlign": "left",
                      "isDisabled": false,
                      "isRequired": false,
                      "isSpellCheck": false,
                      "isVisible": true,
                      "labelTextSize": "0.875rem",
                      "label": "Major"
                    },
                    "Extracurricular_Activity": {
                      "children": {},
                      "dataType": "string",
                      "defaultValue": "{{((sourceData, formData, fieldState) => (sourceData.Extracurricular_Activity))(update_form.sourceData, update_form.formData, update_form.fieldState)}}",
                      "fieldType": "Text Input",
                      "sourceData": "Drama Club",
                      "isCustomField": false,
                      "accessor": "Extracurricular_Activity",
                      "identifier": "Extracurricular_Activity",
                      "position": 5,
                      "originalIdentifier": "Extracurricular_Activity",
                      "boxShadow": "none",
                      "borderRadius": "{{((sourceData, formData, fieldState) => (appsmith.theme.borderRadius.appBorderRadius))(update_form.sourceData, update_form.formData, update_form.fieldState)}}",
                      "accentColor": "{{((sourceData, formData, fieldState) => (appsmith.theme.colors.primaryColor))(update_form.sourceData, update_form.formData, update_form.fieldState)}}",
                      "iconAlign": "left",
                      "isDisabled": false,
                      "isRequired": false,
                      "isSpellCheck": false,
                      "isVisible": true,
                      "labelTextSize": "0.875rem",
                      "label": "Extracurricular Activity"
                    }
                  },
                  "dataType": "object",
                  "defaultValue": "{{((sourceData, formData, fieldState) => (sourceData))(update_form.sourceData, update_form.formData, update_form.fieldState)}}",
                  "fieldType": "Object",
                  "sourceData": {
                    "Student_Name": "Alexandra",
                    "Gender": "Female",
                    "Class_Level": "4. Senior",
                    "Home_State": "CA",
                    "Major": "English",
                    "Extracurricular_Activity": "Drama Club"
                  },
                  "isCustomField": false,
                  "accessor": "__root_schema__",
                  "identifier": "__root_schema__",
                  "position": -1,
                  "originalIdentifier": "__root_schema__",
                  "boxShadow": "none",
                  "borderRadius": "{{((sourceData, formData, fieldState) => (appsmith.theme.borderRadius.appBorderRadius))(update_form.sourceData, update_form.formData, update_form.fieldState)}}",
                  "cellBorderRadius": "{{((sourceData, formData, fieldState) => (appsmith.theme.borderRadius.appBorderRadius))(update_form.sourceData, update_form.formData, update_form.fieldState)}}",
                  "cellBoxShadow": "none",
                  "isDisabled": false,
                  "isRequired": false,
                  "isVisible": true,
                  "labelTextSize": "0.875rem",
                  "label": ""
                }
              },
              "boxShadow": "{{appsmith.theme.boxShadow.appBoxShadow}}",
              "widgetName": "update_form",
              "submitButtonStyles": {
                "boxShadow": "none",
                "borderRadius": "{{appsmith.theme.borderRadius.appBorderRadius}}",
                "buttonColor": "{{appsmith.theme.colors.primaryColor}}",
                "buttonVariant": "PRIMARY"
              },
              "borderColor": "#2E3D4955",
              "dynamicPropertyPathList": [
                {
                  "key": "schema.__root_schema__.children.date_of_birth.defaultValue"
                },
                {
                  "key": "schema.__root_schema__.children.col5.defaultValue"
                },
                {
                  "key": "isVisible"
                },
                {
                  "key": "borderRadius"
                },
                {
                  "key": "onSubmit"
                }
              ],
              "displayName": "JSON Form",
              "iconSVG": "/static/media/icon.6bacf7df.svg",
              "onSubmit": "{{UpdateQuery.run(() => SelectQuery.run(), (error) => showAlert(`Error while updating row!\\n${error}`,'error'))}}",
              "topRow": 0,
              "bottomRow": 86,
              "fieldLimitExceeded": false,
              "parentRowSpace": 10,
              "title": "Update Row Id: {{data_table.selectedRow.rowIndex}}",
              "type": "JSON_FORM_WIDGET",
              "hideCard": false,
              "animateLoading": true,
              "parentColumnSpace": 16.3125,
              "dynamicTriggerPathList": [
                {
                  "key": "onSubmit"
                }
              ],
              "leftColumn": 40,
              "dynamicBindingPathList": [
                {
                  "key": "schema.__root_schema__.defaultValue"
                },
                {
                  "key": "sourceData"
                },
                {
                  "key": "isVisible"
                },
                {
                  "key": "schema.__root_schema__.borderRadius"
                },
                {
                  "key": "schema.__root_schema__.cellBorderRadius"
                },
                {
                  "key": "title"
                },
                {
                  "key": "submitButtonStyles.buttonColor"
                },
                {
                  "key": "submitButtonStyles.borderRadius"
                },
                {
                  "key": "resetButtonStyles.buttonColor"
                },
                {
                  "key": "resetButtonStyles.borderRadius"
                },
                {
                  "key": "boxShadow"
                },
                {
                  "key": "borderRadius"
                },
                {
                  "key": "schema.__root_schema__.children.Student_Name.defaultValue"
                },
                {
                  "key": "schema.__root_schema__.children.Student_Name.borderRadius"
                },
                {
                  "key": "schema.__root_schema__.children.Student_Name.accentColor"
                },
                {
                  "key": "schema.__root_schema__.children.Gender.defaultValue"
                },
                {
                  "key": "schema.__root_schema__.children.Gender.borderRadius"
                },
                {
                  "key": "schema.__root_schema__.children.Gender.accentColor"
                },
                {
                  "key": "schema.__root_schema__.children.Class_Level.defaultValue"
                },
                {
                  "key": "schema.__root_schema__.children.Class_Level.borderRadius"
                },
                {
                  "key": "schema.__root_schema__.children.Class_Level.accentColor"
                },
                {
                  "key": "schema.__root_schema__.children.Home_State.defaultValue"
                },
                {
                  "key": "schema.__root_schema__.children.Home_State.borderRadius"
                },
                {
                  "key": "schema.__root_schema__.children.Home_State.accentColor"
                },
                {
                  "key": "schema.__root_schema__.children.Major.defaultValue"
                },
                {
                  "key": "schema.__root_schema__.children.Major.borderRadius"
                },
                {
                  "key": "schema.__root_schema__.children.Major.accentColor"
                },
                {
                  "key": "schema.__root_schema__.children.Extracurricular_Activity.defaultValue"
                },
                {
                  "key": "schema.__root_schema__.children.Extracurricular_Activity.borderRadius"
                },
                {
                  "key": "schema.__root_schema__.children.Extracurricular_Activity.accentColor"
                }
              ],
              "borderWidth": "0",
              "sourceData": "{{_.omit(data_table.selectedRow, \"customColumn1\", \"__originalIndex__\", \"__primaryKey__\", \"rowIndex\")}}",
              "showReset": true,
              "resetButtonLabel": "Reset",
              "key": "h9l9ozr8op",
              "labelTextSize": "0.875rem",
              "backgroundColor": "#fff",
              "rightColumn": 64,
              "autoGenerateForm": true,
              "widgetId": "tn9ri7ylp2",
              "resetButtonStyles": {
                "boxShadow": "none",
                "borderRadius": "{{appsmith.theme.borderRadius.appBorderRadius}}",
                "buttonColor": "{{appsmith.theme.colors.primaryColor}}",
                "buttonVariant": "SECONDARY"
              },
              "isVisible": "{{data_table.selectedRow!==undefined}}",
              "version": 1,
              "parentId": "0",
              "renderMode": "CANVAS",
              "isLoading": false,
              "scrollContents": true,
              "fixedFooter": true,
              "submitButtonLabel": "Update",
              "childStylesheet": {
                "CHECKBOX": {
                  "borderRadius": "{{appsmith.theme.borderRadius.appBorderRadius}}",
                  "accentColor": "{{appsmith.theme.colors.primaryColor}}"
                },
                "ARRAY": {
                  "boxShadow": "none",
                  "borderRadius": "{{appsmith.theme.borderRadius.appBorderRadius}}",
                  "accentColor": "{{appsmith.theme.colors.primaryColor}}",
                  "cellBorderRadius": "{{appsmith.theme.borderRadius.appBorderRadius}}",
                  "cellBoxShadow": "none"
                },
                "CURRENCY_INPUT": {
                  "boxShadow": "none",
                  "borderRadius": "{{appsmith.theme.borderRadius.appBorderRadius}}",
                  "accentColor": "{{appsmith.theme.colors.primaryColor}}"
                },
                "DATEPICKER": {
                  "boxShadow": "none",
                  "borderRadius": "{{appsmith.theme.borderRadius.appBorderRadius}}",
                  "accentColor": "{{appsmith.theme.colors.primaryColor}}"
                },
                "PHONE_NUMBER_INPUT": {
                  "boxShadow": "none",
                  "borderRadius": "{{appsmith.theme.borderRadius.appBorderRadius}}",
                  "accentColor": "{{appsmith.theme.colors.primaryColor}}"
                },
                "OBJECT": {
                  "boxShadow": "none",
                  "borderRadius": "{{appsmith.theme.borderRadius.appBorderRadius}}",
                  "cellBorderRadius": "{{appsmith.theme.borderRadius.appBorderRadius}}",
                  "cellBoxShadow": "none"
                },
                "MULTISELECT": {
                  "boxShadow": "none",
                  "borderRadius": "{{appsmith.theme.borderRadius.appBorderRadius}}",
                  "accentColor": "{{appsmith.theme.colors.primaryColor}}"
                },
                "SELECT": {
                  "boxShadow": "none",
                  "borderRadius": "{{appsmith.theme.borderRadius.appBorderRadius}}",
                  "accentColor": "{{appsmith.theme.colors.primaryColor}}"
                },
                "NUMBER_INPUT": {
                  "boxShadow": "none",
                  "borderRadius": "{{appsmith.theme.borderRadius.appBorderRadius}}",
                  "accentColor": "{{appsmith.theme.colors.primaryColor}}"
                },
                "PASSWORD_INPUT": {
                  "boxShadow": "none",
                  "borderRadius": "{{appsmith.theme.borderRadius.appBorderRadius}}",
                  "accentColor": "{{appsmith.theme.colors.primaryColor}}"
                },
                "EMAIL_INPUT": {
                  "boxShadow": "none",
                  "borderRadius": "{{appsmith.theme.borderRadius.appBorderRadius}}",
                  "accentColor": "{{appsmith.theme.colors.primaryColor}}"
                },
                "RADIO_GROUP": {
                  "boxShadow": "none",
                  "accentColor": "{{appsmith.theme.colors.primaryColor}}"
                },
                "SWITCH": {
                  "boxShadow": "none",
                  "accentColor": "{{appsmith.theme.colors.primaryColor}}"
                },
                "TEXT_INPUT": {
                  "boxShadow": "none",
                  "borderRadius": "{{appsmith.theme.borderRadius.appBorderRadius}}",
                  "accentColor": "{{appsmith.theme.colors.primaryColor}}"
                },
                "MULTILINE_TEXT_INPUT": {
                  "boxShadow": "none",
                  "borderRadius": "{{appsmith.theme.borderRadius.appBorderRadius}}",
                  "accentColor": "{{appsmith.theme.colors.primaryColor}}"
                }
              },
              "disabledWhenInvalid": true,
              "borderRadius": "{{appsmith.theme.borderRadius.appBorderRadius}}"
            },
            {
              "boxShadow": "{{appsmith.theme.boxShadow.appBoxShadow}}",
              "widgetName": "Container1",
              "borderColor": "#2E3D4955",
              "dynamicPropertyPathList": [
                {
                  "key": "borderRadius"
                }
              ],
              "topRow": 0,
              "bottomRow": 86,
              "parentRowSpace": 10,
              "type": "CONTAINER_WIDGET",
              "parentColumnSpace": 19.75,
              "dynamicTriggerPathList": [],
              "leftColumn": 0,
              "dynamicBindingPathList": [
                {
                  "key": "borderRadius"
                },
                {
                  "key": "boxShadow"
                }
              ],
              "children": [
                {
                  "labelTextSize": "0.875rem",
                  "boxShadow": "none",
                  "widgetName": "Canvas1",
                  "rightColumn": 632,
                  "detachFromLayout": true,
                  "widgetId": "59rw5mx0bq",
                  "containerStyle": "none",
                  "topRow": 0,
                  "bottomRow": 860,
                  "parentRowSpace": 1,
                  "isVisible": "true",
                  "canExtend": false,
                  "type": "CANVAS_WIDGET",
                  "version": 1,
                  "parentId": "mvubsemxfo",
                  "minHeight": 870,
                  "isLoading": false,
                  "parentColumnSpace": 1,
                  "dynamicTriggerPathList": [],
                  "leftColumn": 0,
                  "dynamicBindingPathList": [],
                  "borderRadius": "0px",
                  "children": [
                    {
                      "boxShadow": "{{appsmith.theme.boxShadow.appBoxShadow}}",
                      "widgetName": "data_table",
                      "columnOrder": [
                        "Student_Name",
                        "Gender",
                        "Class_Level",
                        "Home_State",
                        "Major",
                        "Extracurricular_Activity",
                        "rowIndex",
                        "customColumn1"
                      ],
                      "dynamicPropertyPathList": [
                        {
                          "key": "primaryColumns.customColumn1.borderRadius"
                        }
                      ],
                      "isVisibleDownload": true,
                      "topRow": 5,
                      "bottomRow": 84,
                      "parentRowSpace": 10,
                      "onPageChange": "{{SelectQuery.run()}}",
                      "isSortable": true,
                      "type": "TABLE_WIDGET",
                      "defaultSelectedRow": "0",
                      "animateLoading": true,
                      "parentColumnSpace": 1,
                      "dynamicTriggerPathList": [
                        {
                          "key": "onPageChange"
                        },
                        {
                          "key": "primaryColumns.customColumn1.onClick"
                        }
                      ],
                      "dynamicBindingPathList": [
                        {
                          "key": "tableData"
                        },
                        {
                          "key": "primaryColumns.customColumn1.buttonLabel"
                        },
                        {
                          "key": "primaryColumns.rowIndex.computedValue"
                        },
                        {
                          "key": "accentColor"
                        },
                        {
                          "key": "borderRadius"
                        },
                        {
                          "key": "boxShadow"
                        },
                        {
                          "key": "primaryColumns.customColumn1.borderRadius"
                        },
                        {
                          "key": "primaryColumns.Student_Name.computedValue"
                        },
                        {
                          "key": "primaryColumns.Gender.computedValue"
                        },
                        {
                          "key": "primaryColumns.Class_Level.computedValue"
                        },
                        {
                          "key": "primaryColumns.Home_State.computedValue"
                        },
                        {
                          "key": "primaryColumns.Major.computedValue"
                        },
                        {
                          "key": "primaryColumns.Extracurricular_Activity.computedValue"
                        }
                      ],
                      "leftColumn": 0,
                      "primaryColumns": {
                        "customColumn1": {
                          "isCellVisible": true,
                          "boxShadow": "none",
                          "isDerived": true,
                          "computedValue": "{{data_table.sanitizedTableData.map((currentRow) => ( currentRow.customColumn1))}}",
                          "onClick": "{{showModal('Delete_Modal')}}",
                          "textSize": "0.875rem",
                          "buttonColor": "#DD4B34",
                          "index": 7,
                          "isVisible": true,
                          "label": "Delete",
                          "buttonLabel": "{{data_table.sanitizedTableData.map((currentRow) => { return 'Delete'})}}",
                          "columnType": "button",
                          "horizontalAlignment": "LEFT",
                          "borderRadius": "{{data_table.sanitizedTableData.map((currentRow) => ( appsmith.theme.borderRadius.appBorderRadius))}}",
                          "width": 150,
                          "enableFilter": true,
                          "enableSort": true,
                          "id": "customColumn1",
                          "isDisabled": false,
                          "buttonLabelColor": "#FFFFFF",
                          "verticalAlignment": "CENTER"
                        },
                        "rowIndex": {
                          "isCellVisible": true,
                          "boxShadow": "none",
                          "isDerived": false,
                          "computedValue": "{{data_table.sanitizedTableData.map((currentRow) => ( currentRow.rowIndex))}}",
                          "textSize": "0.875rem",
                          "index": 4,
                          "isVisible": false,
                          "label": "rowIndex",
                          "columnType": "text",
                          "horizontalAlignment": "LEFT",
                          "borderRadius": "0px",
                          "width": 150,
                          "enableFilter": true,
                          "enableSort": true,
                          "id": "rowIndex",
                          "verticalAlignment": "CENTER"
                        },
                        "Student_Name": {
                          "index": 0,
                          "width": 150,
                          "id": "Student_Name",
                          "horizontalAlignment": "LEFT",
                          "verticalAlignment": "CENTER",
                          "columnType": "text",
                          "textColor": "",
                          "textSize": "0.875rem",
                          "enableFilter": true,
                          "enableSort": true,
                          "isVisible": true,
                          "isDisabled": false,
                          "isCellVisible": true,
                          "isDerived": false,
                          "label": "Student_Name",
                          "computedValue": "{{data_table.sanitizedTableData.map((currentRow) => ( currentRow.Student_Name))}}",
                          "cellBackground": ""
                        },
                        "Gender": {
                          "index": 1,
                          "width": 150,
                          "id": "Gender",
                          "horizontalAlignment": "LEFT",
                          "verticalAlignment": "CENTER",
                          "columnType": "text",
                          "textColor": "",
                          "textSize": "0.875rem",
                          "enableFilter": true,
                          "enableSort": true,
                          "isVisible": true,
                          "isDisabled": false,
                          "isCellVisible": true,
                          "isDerived": false,
                          "label": "Gender",
                          "computedValue": "{{data_table.sanitizedTableData.map((currentRow) => ( currentRow.Gender))}}",
                          "cellBackground": ""
                        },
                        "Class_Level": {
                          "index": 2,
                          "width": 150,
                          "id": "Class_Level",
                          "horizontalAlignment": "LEFT",
                          "verticalAlignment": "CENTER",
                          "columnType": "text",
                          "textColor": "",
                          "textSize": "0.875rem",
                          "enableFilter": true,
                          "enableSort": true,
                          "isVisible": true,
                          "isDisabled": false,
                          "isCellVisible": true,
                          "isDerived": false,
                          "label": "Class_Level",
                          "computedValue": "{{data_table.sanitizedTableData.map((currentRow) => ( currentRow.Class_Level))}}",
                          "cellBackground": ""
                        },
                        "Home_State": {
                          "index": 3,
                          "width": 150,
                          "id": "Home_State",
                          "horizontalAlignment": "LEFT",
                          "verticalAlignment": "CENTER",
                          "columnType": "text",
                          "textColor": "",
                          "textSize": "0.875rem",
                          "enableFilter": true,
                          "enableSort": true,
                          "isVisible": true,
                          "isDisabled": false,
                          "isCellVisible": true,
                          "isDerived": false,
                          "label": "Home_State",
                          "computedValue": "{{data_table.sanitizedTableData.map((currentRow) => ( currentRow.Home_State))}}",
                          "cellBackground": ""
                        },
                        "Major": {
                          "index": 4,
                          "width": 150,
                          "id": "Major",
                          "horizontalAlignment": "LEFT",
                          "verticalAlignment": "CENTER",
                          "columnType": "text",
                          "textColor": "",
                          "textSize": "0.875rem",
                          "enableFilter": true,
                          "enableSort": true,
                          "isVisible": true,
                          "isDisabled": false,
                          "isCellVisible": true,
                          "isDerived": false,
                          "label": "Major",
                          "computedValue": "{{data_table.sanitizedTableData.map((currentRow) => ( currentRow.Major))}}",
                          "cellBackground": ""
                        },
                        "Extracurricular_Activity": {
                          "index": 5,
                          "width": 150,
                          "id": "Extracurricular_Activity",
                          "horizontalAlignment": "LEFT",
                          "verticalAlignment": "CENTER",
                          "columnType": "text",
                          "textColor": "",
                          "textSize": "0.875rem",
                          "enableFilter": true,
                          "enableSort": true,
                          "isVisible": true,
                          "isDisabled": false,
                          "isCellVisible": true,
                          "isDerived": false,
                          "label": "Extracurricular_Activity",
                          "computedValue": "{{data_table.sanitizedTableData.map((currentRow) => ( currentRow.Extracurricular_Activity))}}",
                          "cellBackground": ""
                        }
                      },
                      "delimiter": ",",
                      "derivedColumns": {
                        "customColumn1": {
                          "boxShadow": "none",
                          "isDerived": true,
                          "computedValue": "",
                          "onClick": "{{deleteQuery.run()}}",
                          "textSize": "0.875rem",
                          "buttonStyle": "#DD4B34",
                          "index": 7,
                          "isVisible": true,
                          "label": "customColumn1",
                          "buttonLabel": "{{data_table.sanitizedTableData.map((currentRow) => { return 'Delete'})}}",
                          "columnType": "button",
                          "horizontalAlignment": "LEFT",
                          "borderRadius": "0px",
                          "width": 150,
                          "enableFilter": true,
                          "enableSort": true,
                          "id": "customColumn1",
                          "buttonLabelColor": "#FFFFFF",
                          "verticalAlignment": "CENTER"
                        }
                      },
                      "labelTextSize": "0.875rem",
                      "rightColumn": 64,
                      "textSize": "0.875rem",
                      "widgetId": "jabdu9f16g",
                      "accentColor": "{{appsmith.theme.colors.primaryColor}}",
                      "isVisibleFilters": true,
                      "tableData": "{{SelectQuery.data}}",
                      "isVisible": "true",
                      "label": "Data",
                      "searchKey": "",
                      "version": 3,
                      "parentId": "59rw5mx0bq",
                      "serverSidePaginationEnabled": true,
                      "isLoading": false,
                      "isVisibleCompactMode": true,
                      "horizontalAlignment": "LEFT",
                      "isVisibleSearch": true,
                      "childStylesheet": {
                        "button": {
                          "boxShadow": "none",
                          "borderRadius": "{{appsmith.theme.borderRadius.appBorderRadius}}",
                          "buttonColor": "{{appsmith.theme.colors.primaryColor}}"
                        },
                        "iconButton": {
                          "boxShadow": "none",
                          "borderRadius": "{{appsmith.theme.borderRadius.appBorderRadius}}",
                          "menuColor": "{{appsmith.theme.colors.primaryColor}}"
                        },
                        "menuButton": {
                          "boxShadow": "none",
                          "borderRadius": "{{appsmith.theme.borderRadius.appBorderRadius}}",
                          "menuColor": "{{appsmith.theme.colors.primaryColor}}"
                        }
                      },
                      "borderRadius": "{{appsmith.theme.borderRadius.appBorderRadius}}",
                      "isVisiblePagination": true,
                      "primaryColumnId": "rowIndex",
                      "verticalAlignment": "CENTER",
                      "columnSizeMap": {
                        "task": 245,
                        "step": 62,
                        "status": 75,
                        "col1": 140
                      }
                    },
                    {
                      "boxShadow": "none",
                      "widgetName": "Text16",
                      "dynamicPropertyPathList": [
                        {
                          "key": "fontSize"
                        }
                      ],
                      "topRow": 1,
                      "bottomRow": 5,
                      "parentRowSpace": 10,
                      "type": "TEXT_WIDGET",
                      "parentColumnSpace": 11.78515625,
                      "dynamicTriggerPathList": [],
                      "overflow": "NONE",
                      "fontFamily": "{{appsmith.theme.fontFamily.appFont}}",
                      "leftColumn": 0,
                      "dynamicBindingPathList": [
                        {
                          "key": "fontFamily"
                        }
                      ],
                      "text": "Class_Data Data",
                      "labelTextSize": "0.875rem",
                      "rightColumn": 39,
                      "textAlign": "LEFT",
                      "widgetId": "urzv99hdc8",
                      "isVisible": "true",
                      "fontStyle": "BOLD",
                      "textColor": "#231F20",
                      "version": 1,
                      "parentId": "59rw5mx0bq",
                      "isLoading": false,
                      "borderRadius": "0px",
                      "fontSize": "1.5rem"
                    },
                    {
                      "labelTextSize": "0.875rem",
                      "boxShadow": "none",
                      "widgetName": "refresh_btn",
                      "rightColumn": 64,
                      "onClick": "{{SelectQuery.run()}}",
                      "iconName": "refresh",
                      "buttonColor": "{{appsmith.theme.colors.primaryColor}}",
                      "widgetId": "typ9jslblf",
                      "topRow": 1,
                      "bottomRow": 5,
                      "parentRowSpace": 10,
                      "isVisible": "true",
                      "type": "ICON_BUTTON_WIDGET",
                      "version": 1,
                      "parentId": "59rw5mx0bq",
                      "isLoading": false,
                      "parentColumnSpace": 12.0703125,
                      "dynamicTriggerPathList": [
                        {
                          "key": "onClick"
                        }
                      ],
                      "borderRadius": "{{appsmith.theme.borderRadius.appBorderRadius}}",
                      "leftColumn": 60,
                      "dynamicBindingPathList": [
                        {
                          "key": "buttonColor"
                        },
                        {
                          "key": "borderRadius"
                        }
                      ],
                      "buttonVariant": "PRIMARY",
                      "isDisabled": false
                    },
                    {
                      "labelTextSize": "0.875rem",
                      "boxShadow": "none",
                      "widgetName": "add_btn",
                      "rightColumn": 59,
                      "onClick": "{{showModal('Insert_Modal')}}",
                      "iconName": "add",
                      "buttonColor": "{{appsmith.theme.colors.primaryColor}}",
                      "widgetId": "8b67sbqskr",
                      "topRow": 1,
                      "bottomRow": 5,
                      "parentRowSpace": 10,
                      "isVisible": "true",
                      "type": "ICON_BUTTON_WIDGET",
                      "version": 1,
                      "parentId": "59rw5mx0bq",
                      "isLoading": false,
                      "parentColumnSpace": 12.0703125,
                      "dynamicTriggerPathList": [
                        {
                          "key": "onClick"
                        }
                      ],
                      "borderRadius": "{{appsmith.theme.borderRadius.appBorderRadius}}",
                      "leftColumn": 55,
                      "dynamicBindingPathList": [
                        {
                          "key": "buttonColor"
                        },
                        {
                          "key": "borderRadius"
                        }
                      ],
                      "buttonVariant": "PRIMARY",
                      "isDisabled": false
                    }
                  ]
                }
              ],
              "borderWidth": "0",
              "labelTextSize": "0.875rem",
              "backgroundColor": "#FFFFFF",
              "rightColumn": 40,
              "widgetId": "mvubsemxfo",
              "containerStyle": "card",
              "isVisible": "true",
              "version": 1,
              "parentId": "0",
              "isLoading": false,
              "borderRadius": "{{appsmith.theme.borderRadius.appBorderRadius}}"
            },
            {
              "boxShadow": "none",
              "widgetName": "Delete_Modal",
              "topRow": 13,
              "bottomRow": 37,
              "parentRowSpace": 10,
              "type": "MODAL_WIDGET",
              "shouldScrollContents": true,
              "parentColumnSpace": 18.8828125,
              "dynamicTriggerPathList": [],
              "leftColumn": 21,
              "dynamicBindingPathList": [
                {
                  "key": "borderRadius"
                }
              ],
              "children": [
                {
                  "boxShadow": "none",
                  "widgetName": "Canvas3",
                  "topRow": 0,
                  "bottomRow": 240,
                  "parentRowSpace": 1,
                  "canExtend": true,
                  "type": "CANVAS_WIDGET",
                  "shouldScrollContents": false,
                  "minHeight": 240,
                  "parentColumnSpace": 1,
                  "dynamicTriggerPathList": [],
                  "leftColumn": 0,
                  "dynamicBindingPathList": [],
                  "children": [
                    {
                      "boxShadow": "none",
                      "widgetName": "Text11",
                      "dynamicPropertyPathList": [
                        {
                          "key": "fontSize"
                        }
                      ],
                      "topRow": 1,
                      "bottomRow": 5,
                      "type": "TEXT_WIDGET",
                      "dynamicTriggerPathList": [],
                      "overflow": "NONE",
                      "fontFamily": "System Default",
                      "leftColumn": 1,
                      "dynamicBindingPathList": [],
                      "text": "Delete Row",
                      "labelTextSize": "0.875rem",
                      "rightColumn": 41,
                      "textAlign": "LEFT",
                      "widgetId": "35yoxo4oec",
                      "isVisible": "true",
                      "fontStyle": "BOLD",
                      "textColor": "#231F20",
                      "version": 1,
                      "parentId": "zi8fjakv8o",
                      "isLoading": false,
                      "borderRadius": "0px",
                      "fontSize": "1.5rem"
                    },
                    {
                      "boxShadow": "none",
                      "widgetName": "Button1",
                      "onClick": "{{closeModal('Delete_Modal')}}",
                      "dynamicPropertyPathList": [],
                      "buttonColor": "#3f3f46",
                      "topRow": 18,
                      "bottomRow": 22,
                      "type": "BUTTON_WIDGET",
                      "dynamicTriggerPathList": [
                        {
                          "key": "onClick"
                        }
                      ],
                      "leftColumn": 36,
                      "dynamicBindingPathList": [
                        {
                          "key": "borderRadius"
                        }
                      ],
                      "text": "Cancel",
                      "isDisabled": false,
                      "labelTextSize": "0.875rem",
                      "rightColumn": 48,
                      "isDefaultClickDisabled": true,
                      "widgetId": "lryg8kw537",
                      "isVisible": "true",
                      "version": 1,
                      "recaptchaType": "V3",
                      "parentId": "zi8fjakv8o",
                      "isLoading": false,
                      "borderRadius": "{{appsmith.theme.borderRadius.appBorderRadius}}",
                      "buttonVariant": "TERTIARY"
                    },
                    {
                      "boxShadow": "none",
                      "widgetName": "delete_button",
                      "onClick": "{{(function () {\nDeleteQuery.run(() =>{ showAlert('Row successfully deleted!','success');\tSelectQuery.run();\n}, () => showAlert('Something went wrong! Please check debugger for more info.','error'));\ncloseModal('Delete_Modal');\n})()}}",
                      "dynamicPropertyPathList": [
                        {
                          "key": "onClick"
                        }
                      ],
                      "buttonColor": "#DD4B34",
                      "topRow": 18,
                      "bottomRow": 22,
                      "type": "BUTTON_WIDGET",
                      "dynamicTriggerPathList": [
                        {
                          "key": "onClick"
                        }
                      ],
                      "leftColumn": 48,
                      "dynamicBindingPathList": [
                        {
                          "key": "borderRadius"
                        }
                      ],
                      "text": "Confirm",
                      "isDisabled": false,
                      "labelTextSize": "0.875rem",
                      "rightColumn": 64,
                      "isDefaultClickDisabled": true,
                      "widgetId": "qq02lh7ust",
                      "isVisible": "true",
                      "version": 1,
                      "recaptchaType": "V3",
                      "parentId": "zi8fjakv8o",
                      "isLoading": false,
                      "borderRadius": "{{appsmith.theme.borderRadius.appBorderRadius}}",
                      "buttonVariant": "PRIMARY"
                    },
                    {
                      "boxShadow": "none",
                      "widgetName": "Text12",
                      "topRow": 8,
                      "bottomRow": 12,
                      "parentRowSpace": 10,
                      "type": "TEXT_WIDGET",
                      "parentColumnSpace": 6.875,
                      "dynamicTriggerPathList": [],
                      "overflow": "NONE",
                      "fontFamily": "System Default",
                      "leftColumn": 1,
                      "dynamicBindingPathList": [],
                      "text": "Are you sure you want to delete this item?",
                      "labelTextSize": "0.875rem",
                      "rightColumn": 63,
                      "textAlign": "LEFT",
                      "widgetId": "48uac29g6e",
                      "isVisible": "true",
                      "fontStyle": "",
                      "textColor": "#231F20",
                      "version": 1,
                      "parentId": "zi8fjakv8o",
                      "isLoading": false,
                      "borderRadius": "0px",
                      "fontSize": "1rem"
                    }
                  ],
                  "isDisabled": false,
                  "labelTextSize": "0.875rem",
                  "rightColumn": 453.1875,
                  "detachFromLayout": true,
                  "widgetId": "zi8fjakv8o",
                  "isVisible": "true",
                  "version": 1,
                  "parentId": "i3whp03wf0",
                  "isLoading": false,
                  "borderRadius": "0px"
                }
              ],
              "height": 240,
              "labelTextSize": "0.875rem",
              "rightColumn": 45,
              "detachFromLayout": true,
              "widgetId": "i3whp03wf0",
              "canOutsideClickClose": true,
              "canEscapeKeyClose": true,
              "version": 2,
              "parentId": "0",
              "isLoading": false,
              "borderRadius": "{{appsmith.theme.borderRadius.appBorderRadius}}",
              "width": 456
            },
            {
              "boxShadow": "none",
              "widgetName": "Insert_Modal",
              "topRow": 16,
              "bottomRow": 40,
              "parentRowSpace": 10,
              "type": "MODAL_WIDGET",
              "shouldScrollContents": false,
              "parentColumnSpace": 18.8828125,
              "dynamicTriggerPathList": [],
              "leftColumn": 17,
              "dynamicBindingPathList": [
                {
                  "key": "borderRadius"
                }
              ],
              "children": [
                {
                  "boxShadow": "none",
                  "widgetName": "Canvas4",
                  "topRow": 0,
                  "bottomRow": 610,
                  "parentRowSpace": 1,
                  "canExtend": true,
                  "type": "CANVAS_WIDGET",
                  "shouldScrollContents": false,
                  "minHeight": 600,
                  "parentColumnSpace": 1,
                  "dynamicTriggerPathList": [],
                  "leftColumn": 0,
                  "dynamicBindingPathList": [],
                  "children": [
                    {
                      "schema": {
                        "__root_schema__": {
                          "labelTextSize": "0.875rem",
                          "identifier": "__root_schema__",
                          "boxShadow": "none",
                          "isRequired": false,
                          "isCustomField": false,
                          "defaultValue": "{{((sourceData, formData, fieldState) => (sourceData))(insert_form.sourceData, insert_form.formData, insert_form.fieldState)}}",
                          "dataType": "object",
                          "cellBorderRadius": "{{appsmith.theme.borderRadius.appBorderRadius}}",
                          "accessor": "__root_schema__",
                          "isVisible": true,
                          "label": "",
                          "originalIdentifier": "__root_schema__",
                          "borderRadius": "{{appsmith.theme.borderRadius.appBorderRadius}}",
                          "children": {
                            "col4": {
                              "labelTextSize": "0.875rem",
                              "identifier": "col4",
                              "isRequired": false,
                              "boxShadow": "none",
                              "isCustomField": false,
                              "defaultValue": "{{((sourceData, formData, fieldState) => (sourceData.col4))(update_form.sourceData, update_form.formData, update_form.fieldState)}}",
                              "accentColor": "{{appsmith.theme.colors.primaryColor}}",
                              "dataType": "string",
                              "cellBorderRadius": "0px",
                              "accessor": "col4",
                              "isVisible": true,
                              "label": "Col 4",
                              "originalIdentifier": "col4",
                              "borderRadius": "{{appsmith.theme.borderRadius.appBorderRadius}}",
                              "children": {},
                              "isSpellCheck": false,
                              "iconAlign": "left",
                              "position": 3,
                              "isDisabled": false,
                              "sourceData": "entry 5",
                              "cellBoxShadow": "none",
                              "fieldType": "Text Input"
                            },
                            "rowIndex": {
                              "labelTextSize": "0.875rem",
                              "identifier": "rowIndex",
                              "isRequired": false,
                              "boxShadow": "none",
                              "isCustomField": false,
                              "defaultValue": "{{((sourceData, formData, fieldState) => (sourceData.rowIndex))(insert_form.sourceData, insert_form.formData, insert_form.fieldState)}}",
                              "accentColor": "{{appsmith.theme.colors.primaryColor}}",
                              "dataType": "string",
                              "cellBorderRadius": "0px",
                              "accessor": "rowIndex",
                              "isVisible": false,
                              "label": "Row Index",
                              "originalIdentifier": "rowIndex",
                              "borderRadius": "{{appsmith.theme.borderRadius.appBorderRadius}}",
                              "children": {},
                              "isSpellCheck": false,
                              "iconAlign": "left",
                              "position": 4,
                              "isDisabled": false,
                              "sourceData": "0",
                              "cellBoxShadow": "none",
                              "fieldType": "Text Input"
                            },
                            "col2": {
                              "labelTextSize": "0.875rem",
                              "identifier": "col2",
                              "isRequired": false,
                              "boxShadow": "none",
                              "isCustomField": false,
                              "defaultValue": "{{((sourceData, formData, fieldState) => (sourceData.col2))(update_form.sourceData, update_form.formData, update_form.fieldState)}}",
                              "accentColor": "{{appsmith.theme.colors.primaryColor}}",
                              "dataType": "string",
                              "cellBorderRadius": "0px",
                              "accessor": "col2",
                              "isVisible": true,
                              "label": "Col 2",
                              "originalIdentifier": "col2",
                              "borderRadius": "{{appsmith.theme.borderRadius.appBorderRadius}}",
                              "children": {},
                              "isSpellCheck": false,
                              "iconAlign": "left",
                              "position": 1,
                              "isDisabled": false,
                              "sourceData": "is 2",
                              "cellBoxShadow": "none",
                              "fieldType": "Text Input"
                            },
                            "col3": {
                              "labelTextSize": "0.875rem",
                              "identifier": "col3",
                              "isRequired": false,
                              "boxShadow": "none",
                              "isCustomField": false,
                              "defaultValue": "{{((sourceData, formData, fieldState) => (sourceData.col3))(update_form.sourceData, update_form.formData, update_form.fieldState)}}",
                              "accentColor": "{{appsmith.theme.colors.primaryColor}}",
                              "dataType": "string",
                              "cellBorderRadius": "0px",
                              "accessor": "col3",
                              "isVisible": true,
                              "label": "Col 3",
                              "originalIdentifier": "col3",
                              "borderRadius": "{{appsmith.theme.borderRadius.appBorderRadius}}",
                              "children": {},
                              "isSpellCheck": false,
                              "iconAlign": "left",
                              "position": 2,
                              "isDisabled": false,
                              "sourceData": "new 3",
                              "cellBoxShadow": "none",
                              "fieldType": "Text Input"
                            },
                            "col1": {
                              "labelTextSize": "0.875rem",
                              "identifier": "col1",
                              "isRequired": false,
                              "boxShadow": "none",
                              "isCustomField": false,
                              "defaultValue": "{{((sourceData, formData, fieldState) => (sourceData.col1))(update_form.sourceData, update_form.formData, update_form.fieldState)}}",
                              "accentColor": "{{appsmith.theme.colors.primaryColor}}",
                              "dataType": "string",
                              "cellBorderRadius": "0px",
                              "accessor": "col1",
                              "isVisible": true,
                              "label": "Col 1",
                              "originalIdentifier": "col1",
                              "borderRadius": "{{appsmith.theme.borderRadius.appBorderRadius}}",
                              "children": {},
                              "isSpellCheck": false,
                              "iconAlign": "left",
                              "position": 0,
                              "isDisabled": false,
                              "sourceData": "This 12",
                              "cellBoxShadow": "none",
                              "fieldType": "Text Input"
                            }
                          },
                          "position": -1,
                          "isDisabled": false,
                          "sourceData": {
                            "col4": "entry 5",
                            "rowIndex": "0",
                            "col2": "is 2",
                            "col3": "new 3",
                            "col1": "This 12"
                          },
                          "cellBoxShadow": "none",
                          "fieldType": "Object"
                        }
                      },
                      "boxShadow": "{{appsmith.theme.boxShadow.appBoxShadow}}",
                      "widgetName": "insert_form",
                      "submitButtonStyles": {
                        "boxShadow": "none",
                        "borderRadius": "{{appsmith.theme.borderRadius.appBorderRadius}}",
                        "buttonColor": "{{appsmith.theme.colors.primaryColor}}",
                        "buttonVariant": "PRIMARY"
                      },
                      "borderColor": "",
                      "dynamicPropertyPathList": [
                        {
                          "key": "schema.__root_schema__.children.date_of_birth.defaultValue"
                        },
                        {
                          "key": "schema.__root_schema__.children.col5.defaultValue"
                        },
                        {
                          "key": "onSubmit"
                        },
                        {
                          "key": "borderRadius"
                        }
                      ],
                      "displayName": "JSON Form",
                      "iconSVG": "/static/media/icon.6bacf7df.svg",
                      "onSubmit": "{{InsertQuery.run(\n\t() => SelectQuery.run()\n\t\t\t\t\t.then(() => closeModal('Insert_Modal')), \n\t(error) => showAlert(`Error while inserting resource!\\n ${error}`,'error'))\n}}",
                      "topRow": 0,
                      "bottomRow": 59,
                      "fieldLimitExceeded": false,
                      "parentRowSpace": 10,
                      "title": "Insert Row",
                      "type": "JSON_FORM_WIDGET",
                      "hideCard": false,
                      "animateLoading": true,
                      "parentColumnSpace": 16.3125,
                      "dynamicTriggerPathList": [
                        {
                          "key": "onSubmit"
                        }
                      ],
                      "leftColumn": 0,
                      "dynamicBindingPathList": [
                        {
                          "key": "schema.__root_schema__.defaultValue"
                        },
                        {
                          "key": "sourceData"
                        },
                        {
                          "key": "schema.__root_schema__.children.col1.defaultValue"
                        },
                        {
                          "key": "schema.__root_schema__.children.col3.defaultValue"
                        },
                        {
                          "key": "schema.__root_schema__.children.col4.defaultValue"
                        },
                        {
                          "key": "schema.__root_schema__.children.col2.defaultValue"
                        },
                        {
                          "key": "schema.__root_schema__.children.rowIndex.defaultValue"
                        },
                        {
                          "key": "schema.__root_schema__.borderRadius"
                        },
                        {
                          "key": "schema.__root_schema__.cellBorderRadius"
                        },
                        {
                          "key": "borderRadius"
                        },
                        {
                          "key": "boxShadow"
                        },
                        {
                          "key": "submitButtonStyles.buttonColor"
                        },
                        {
                          "key": "submitButtonStyles.borderRadius"
                        },
                        {
                          "key": "resetButtonStyles.buttonColor"
                        },
                        {
                          "key": "resetButtonStyles.borderRadius"
                        },
                        {
                          "key": "schema.__root_schema__.children.col1.accentColor"
                        },
                        {
                          "key": "schema.__root_schema__.children.col1.borderRadius"
                        },
                        {
                          "key": "schema.__root_schema__.children.col2.accentColor"
                        },
                        {
                          "key": "schema.__root_schema__.children.col2.borderRadius"
                        },
                        {
                          "key": "schema.__root_schema__.children.col3.accentColor"
                        },
                        {
                          "key": "schema.__root_schema__.children.col3.borderRadius"
                        },
                        {
                          "key": "schema.__root_schema__.children.col4.accentColor"
                        },
                        {
                          "key": "schema.__root_schema__.children.col4.borderRadius"
                        },
                        {
                          "key": "schema.__root_schema__.children.rowIndex.accentColor"
                        },
                        {
                          "key": "schema.__root_schema__.children.rowIndex.borderRadius"
                        }
                      ],
                      "borderWidth": "0",
                      "sourceData": "{{_.omit(data_table.tableData[0], \"customColumn1\")}}",
                      "showReset": true,
                      "resetButtonLabel": "Reset",
                      "key": "h9l9ozr8op",
                      "labelTextSize": "0.875rem",
                      "backgroundColor": "#fff",
                      "rightColumn": 64,
                      "autoGenerateForm": true,
                      "widgetId": "4amgm2y5ph",
                      "resetButtonStyles": {
                        "boxShadow": "none",
                        "borderRadius": "{{appsmith.theme.borderRadius.appBorderRadius}}",
                        "buttonColor": "{{appsmith.theme.colors.primaryColor}}",
                        "buttonVariant": "SECONDARY"
                      },
                      "isVisible": "true",
                      "version": 1,
                      "parentId": "9rhv3ioohq",
                      "renderMode": "CANVAS",
                      "isLoading": false,
                      "scrollContents": true,
                      "fixedFooter": true,
                      "submitButtonLabel": "Submit",
                      "childStylesheet": {
                        "CHECKBOX": {
                          "borderRadius": "{{appsmith.theme.borderRadius.appBorderRadius}}",
                          "accentColor": "{{appsmith.theme.colors.primaryColor}}"
                        },
                        "ARRAY": {
                          "boxShadow": "none",
                          "borderRadius": "{{appsmith.theme.borderRadius.appBorderRadius}}",
                          "accentColor": "{{appsmith.theme.colors.primaryColor}}",
                          "cellBorderRadius": "{{appsmith.theme.borderRadius.appBorderRadius}}",
                          "cellBoxShadow": "none"
                        },
                        "CURRENCY_INPUT": {
                          "boxShadow": "none",
                          "borderRadius": "{{appsmith.theme.borderRadius.appBorderRadius}}",
                          "accentColor": "{{appsmith.theme.colors.primaryColor}}"
                        },
                        "DATEPICKER": {
                          "boxShadow": "none",
                          "borderRadius": "{{appsmith.theme.borderRadius.appBorderRadius}}",
                          "accentColor": "{{appsmith.theme.colors.primaryColor}}"
                        },
                        "PHONE_NUMBER_INPUT": {
                          "boxShadow": "none",
                          "borderRadius": "{{appsmith.theme.borderRadius.appBorderRadius}}",
                          "accentColor": "{{appsmith.theme.colors.primaryColor}}"
                        },
                        "OBJECT": {
                          "boxShadow": "none",
                          "borderRadius": "{{appsmith.theme.borderRadius.appBorderRadius}}",
                          "cellBorderRadius": "{{appsmith.theme.borderRadius.appBorderRadius}}",
                          "cellBoxShadow": "none"
                        },
                        "MULTISELECT": {
                          "boxShadow": "none",
                          "borderRadius": "{{appsmith.theme.borderRadius.appBorderRadius}}",
                          "accentColor": "{{appsmith.theme.colors.primaryColor}}"
                        },
                        "SELECT": {
                          "boxShadow": "none",
                          "borderRadius": "{{appsmith.theme.borderRadius.appBorderRadius}}",
                          "accentColor": "{{appsmith.theme.colors.primaryColor}}"
                        },
                        "NUMBER_INPUT": {
                          "boxShadow": "none",
                          "borderRadius": "{{appsmith.theme.borderRadius.appBorderRadius}}",
                          "accentColor": "{{appsmith.theme.colors.primaryColor}}"
                        },
                        "PASSWORD_INPUT": {
                          "boxShadow": "none",
                          "borderRadius": "{{appsmith.theme.borderRadius.appBorderRadius}}",
                          "accentColor": "{{appsmith.theme.colors.primaryColor}}"
                        },
                        "EMAIL_INPUT": {
                          "boxShadow": "none",
                          "borderRadius": "{{appsmith.theme.borderRadius.appBorderRadius}}",
                          "accentColor": "{{appsmith.theme.colors.primaryColor}}"
                        },
                        "RADIO_GROUP": {
                          "boxShadow": "none",
                          "accentColor": "{{appsmith.theme.colors.primaryColor}}"
                        },
                        "SWITCH": {
                          "boxShadow": "none",
                          "accentColor": "{{appsmith.theme.colors.primaryColor}}"
                        },
                        "TEXT_INPUT": {
                          "boxShadow": "none",
                          "borderRadius": "{{appsmith.theme.borderRadius.appBorderRadius}}",
                          "accentColor": "{{appsmith.theme.colors.primaryColor}}"
                        },
                        "MULTILINE_TEXT_INPUT": {
                          "boxShadow": "none",
                          "borderRadius": "{{appsmith.theme.borderRadius.appBorderRadius}}",
                          "accentColor": "{{appsmith.theme.colors.primaryColor}}"
                        }
                      },
                      "disabledWhenInvalid": true,
                      "borderRadius": "{{appsmith.theme.borderRadius.appBorderRadius}}"
                    }
                  ],
                  "isDisabled": false,
                  "labelTextSize": "0.875rem",
                  "rightColumn": 453.1875,
                  "detachFromLayout": true,
                  "widgetId": "9rhv3ioohq",
                  "isVisible": "true",
                  "version": 1,
                  "parentId": "vmorzie6eq",
                  "isLoading": false,
                  "borderRadius": "0px"
                }
              ],
              "height": 600,
              "labelTextSize": "0.875rem",
              "rightColumn": 41,
              "detachFromLayout": true,
              "widgetId": "vmorzie6eq",
              "canOutsideClickClose": true,
              "canEscapeKeyClose": true,
              "version": 2,
              "parentId": "0",
              "isLoading": false,
              "borderRadius": "{{appsmith.theme.borderRadius.appBorderRadius}}",
              "width": 532
            }
          ]
        },
        "layoutOnLoadActions": [
          [
            {
              "id": "Class Data_SelectQuery",
              "name": "SelectQuery",
              "confirmBeforeExecute": false,
              "pluginType": "SAAS",
              "jsonPathKeys": [
                "data_table.pageSize",
                "(data_table.pageNo - 1) * data_table.pageSize"
              ],
              "timeoutInMillisecond": 10000
            }
          ]
        ],
        "validOnPageLoadActions": true,
        "id": "Class Data",
        "deleted": false,
        "policies": [],
        "userPermissions": []
      }
    ],
    "userPermissions": [],
    "policies": []
  },
  "deleted": false,
  "gitSyncId": "62ce82e63b6f9f1be714c520_62ce851e91ea973cc99a2ad2"
}